…
```sql
.maxrows 20

SELECT   COUNT(*),
         filename
FROM     READ_PARQUET(['*/*.pq',
                       '*/*/*.pq'],
                      filename=True)
GROUP BY 2
ORDER BY 1;
```

```
┌──────────────┬────────────────────────────────────────┐
│ count_star() │                filename                │
│    int64     │                varchar                 │
├──────────────┼────────────────────────────────────────┤
│         6702 │ China/Tibet/Ngari.pq                   │
│         9081 │ China/Hubei/Shennongjia.pq             │
│         9912 │ China/Xinjiang/Kunyu.pq                │
│        10304 │ China/Xinjiang/Shuanghe.pq             │
│        10400 │ China/Qinghai/Golog.pq                 │
│        10706 │ China/Macau/Macau.pq                   │
│        10765 │ China/Xinjiang/Beitun.pq               │
│        11558 │ China/Xinjiang/Tiemenguan.pq           │
│        12154 │ China/Tibet/Qamdo.pq                   │
│        13257 │ China/Tibet/Nagqu.pq                   │
│          ·   │          ·                             │
│          ·   │          ·                             │
│          ·   │          ·                             │
│      2925195 │ China/Hebei/Baoding.pq                 │
│      2938536 │ China/Beijing/Beijing.pq               │
│      2953535 │ China/Heilongjiang/Harbin.pq           │
│      3177243 │ China/Shandong/Linyi.pq                │
│      3337219 │ Japan/Japan1.pq                        │
│      3622496 │ China/Shandong/Weifang.pq              │
│      3793564 │ South Korea/South_Korea_build_final.pq │
│      5501408 │ China/Chongqing/Chongqing.pq           │
│      8597500 │ Japan/Japan2.pq                        │
│     12519164 │ Japan/Japan4.pq                        │
├──────────────┴────────────────────────────────────────┤
│ 358 rows (20 shown)                         2 columns │
└───────────────────────────────────────────────────────┘
```
…
